{
  "title": "IM.Forms.DirectMessagingChannel",
  "model": "DirectMessagingChannels",
  "settings": {
    "i18n": {
      "el": {
        "Headline": "Τίτλος",
        "Messaging channel headline": "Τίτλος καναλιού μηνυμάτων",
        "Alternate name": "Εναλλακτικό όνομα",
        "Messaging channel alternateName": "Εναλλακτικό όνομα καναλιού μηνυμάτων",
        "Read only": "Μόνο για ανάγνωση",
        "No": "Όχι",
        "Yes": "Ναι",
        "Add members": "Προσθήκη μελών",
        "Type to search": "Αναζήτηση"
      }
    }
  },
  "components": [
    {
      "label": "Headline",
      "placeholder": "Messaging channel headline",
      "tableView": true,
      "validate": {
        "required": true,
        "minLength": 1,
        "maxLength": 50
      },
      "key": "headline",
      "type": "textfield",
      "input": true
    },
    {
      "label": "Alternate name",
      "placeholder": "Alternate name",
      "hidden": true,
      "disabled": true,
      "tableView": true,
      "clearOnHide": false,
      "calculateValue": "value=data.headline",
      "validate": {
        "required": true,
        "minLength": 1,
        "maxLength": 50
      },
      "key": "alternateName",
      "type": "textfield",
      "input": true
    },
    {
      "label": "Read only",
      "widget": "choicesjs",
      "tableView": true,
      "defaultValue": "0",
      "data": {
        "values": [
          {
            "label": "No",
            "value": "0"
          },
          {
            "label": "Yes",
            "value": "1"
          }
        ]
      },
      "validate": {
        "required": true,
        "onlyAvailableItems": true
      },
      "key": "readOnly",
      "type": "select",
      "input": true
    },
    {
      "label": "Add members",
      "widget": "choicesjs",
      "tableView": true,
      "multiple": true,
      "dataSrc": "url",
      "data": {
        "url": "InstantMessageAccounts?$top={{limit}}&$skip={{skip}}&$select=id,name,account&$filter=indexof(name, '{{encodeURIComponent(search||'')}}') ge 0 or indexof(account/name, '{{encodeURIComponent(search||'')}}') ge 0"
      },
      "template": "<span>{{ item.name }} - {{ item.account.name }}</span>",
      "validate": {
        "required": true
      },
      "key": "members",
      "type": "select",
      "selectValues": "value",
      "filter": "$expand=account",
      "limit": 15,
      "input": true,
      "disableLimit": false,
      "searchField": "search",
      "searchFields": [
        "value.name",
        "value.account.name"
      ],
      "searchThreshold": "0.3",
      "searchEnabled": true
    },
    {
      "label": "Keywords",
      "hidden": true,
      "tableView": true,
      "multiple": true,
      "defaultValue": [],
      "case": "lowercase",
      "clearOnHide": true,
      "validate": {
        "minLength": 3,
        "maxLength": 20,
        "minWords": 1
      },
      "key": "keywords",
      "type": "textfield",
      "input": true,
      "keyModified": true
    },
    {
      "type": "button",
      "label": "Submit",
      "key": "submit",
      "disableOnInvalid": true,
      "input": true,
      "tableView": false
    }
  ]
}